[
    {
        "name": "Spotify",
        "bio": "Based on simple REST principles, the Spotify Web API endpoints return JSON metadata about music artists, albums, and tracks, directly from the Spotify Data Catalogue.",
        "image": "https://upload.wikimedia.org/wikipedia/commons/thumb/7/74/Spotify_App_Logo.svg/2048px-Spotify_App_Logo.svg.png",
        "link": "https://developer.spotify.com/documentation/web-api/"
    },
    {
        "name": "Genius",
        "bio": "Genius API allows users to search its vast library of songs and obtain lyrics for that song among other things.",
        "image":"https://upload.wikimedia.org/wikipedia/commons/5/51/Genius-logo.png",
        "link": "https://docs.genius.com/"
    }, 
    {
        "name": "YouTube",
        "bio": "YouTube API allows users to search its video library for videos of artists, genres, and songs.",
        "image":"https://1.bp.blogspot.com/-qdRfUNOtjkM/XeI_00z9pzI/AAAAAAAAF4E/FeD2SvVFnKUjPAKQ_cNM6-D2ahjKb0HkQCLcBGAsYHQ/s1600/Youtube-Icon-square-2340x2340-2.png",
        "link": "https://developers.google.com/youtube/v3/getting-started"
    }   , 
    {
        "name": "Google Image search",
        "bio": "Google Image search API allows users to search its library for images pertaining to queried keywords.",
        "image":"https://cdn.vox-cdn.com/thumbor/d7qkAUHk-xghciu4NNPd8-5PPOU=/0x18:2500x1685/1200x800/filters:focal(0x18:2500x1685)/cdn.vox-cdn.com/uploads/chorus_image/image/49555689/google-logo.0.0.jpg",
        "link": "https://developers.google.com/custom-search/v1/introduction"
    }   
    
]






