// Jest Snapshot v1, https://goo.gl/fbAQLP

exports[`Tests for nav bar and global search bar nav snapshot correct 1`] = `
<nav>
  <div
    className="logo"
    onClick={[Function]}
    style={
      Object {
        "cursor": "pointer",
      }
    }
  >
    <img
      id="ourLogo"
      src="logo.png"
    />
  </div>
  <form
    className="d-flex"
    onSubmit={[Function]}
    style={
      Object {
        "width": "50%",
      }
    }
  >
    <input
      aria-label="Search"
      className="mr-2 form-control"
      name="query"
      placeholder="Search Artists, Songs, and Genres"
      style={
        Object {
          "width": "20w",
        }
      }
      type="search"
    />
    <button
      className="btn btn-outline-success"
      data-testid="Search_Button"
      disabled={false}
      style={
        Object {
          "marginLeft": "10px",
        }
      }
      type="submit"
    >
      Search
    </button>
  </form>
  <div>
    <ul
      className="#navbar"
      id="navbar"
    >
      <li>
        <div
          className="label"
          onClick={[Function]}
          style={
            Object {
              "cursor": "pointer",
            }
          }
        >
          <a
            className="active"
          >
            Home
          </a>
        </div>
      </li>
      <li>
        <div
          className="label"
          id="nav_artists"
          onClick={[Function]}
          style={
            Object {
              "cursor": "pointer",
            }
          }
        >
          <a
            className=""
          >
            Artists
          </a>
        </div>
      </li>
      <li>
        <div
          className="label"
          id="nav_genres"
          onClick={[Function]}
          style={
            Object {
              "cursor": "pointer",
            }
          }
        >
          <a
            className=""
          >
            Genres
          </a>
        </div>
      </li>
      <li>
        <div
          className="label"
          id="nav_songs"
          onClick={[Function]}
          style={
            Object {
              "cursor": "pointer",
            }
          }
        >
          <a
            className=""
          >
            Songs
          </a>
        </div>
      </li>
      <li>
        <div
          className="label"
          id="nav_vis"
          onClick={[Function]}
          style={
            Object {
              "cursor": "pointer",
              "textAlign": "center",
            }
          }
        >
          <a
            className=""
          >
            Our Visualizations
          </a>
        </div>
      </li>
      <li>
        <div
          className="label"
          id="nav_vis"
          onClick={[Function]}
          style={
            Object {
              "cursor": "pointer",
              "textAlign": "center",
            }
          }
        >
          <a
            className=""
          >
            Provider Visualizations
          </a>
        </div>
      </li>
      <li>
        <div
          className="label"
          id="nav_about"
          onClick={[Function]}
          style={
            Object {
              "cursor": "pointer",
            }
          }
        >
          <a
            className=""
          >
            About
          </a>
        </div>
      </li>
    </ul>
  </div>
  <div
    id="mobile"
    onClick={[Function]}
  >
    <i
      className="fas fa-bars"
      id="bar"
    />
  </div>
</nav>
`;
